Data Explorer App of COVID-19 in Europe • c19euxplorer
…
This app comprises of seven tabs as follow:

Home. This tab is a landing page of the app. It gives a very brief overview of the app and the urge to explore the app by clicking each tab in the navbar.

Cases and Deaths. You can visualize the cases and deaths of COVID-19 in 51 countries in Europe in daily and cumulative-wise. You can also compare several countries with a certain range of date.

Testing. You can explore the COVID-19 weekly testing and positivity rates in 30 countries in Europe (EU/EEA member countries and UK). You can also compare certain countries within certain week range. If you wish to use the data only without launch the app, this package contains that data for your own purpose.

library(tibble)
tibble(c19euxplorer::testing_weekly_eu)
#> # A tibble: 954 x 9
#>    country country_code year_week new_cases tests_done population testing_rate
#>    <chr>   <chr>        <chr>         <dbl>      <dbl>      <dbl>        <dbl>
#>  1 Austria AT           2020-W15       2041      12339    8858775         139.
#>  2 Austria AT           2020-W16        855      58488    8858775         660.
#>  3 Austria AT           2020-W17        472      33443    8858775         378.
#>  4 Austria AT           2020-W18        336      26598    8858775         300.
#>  5 Austria AT           2020-W19        307      42153    8858775         476.
#>  6 Austria AT           2020-W20        363      46001    8858775         519.
#>  7 Austria AT           2020-W21        267      39348    8858775         444.
#>  8 Austria AT           2020-W22        231      46677    8858775         527.
#>  9 Austria AT           2020-W23        184      41063    8858775         464.
#> 10 Austria AT           2020-W24        192      35243    8858775         398.
#> # … with 944 more rows, and 2 more variables: positivity_rate <dbl>,
#> #   testing_data_source <chr>

Tracing. The content of this tab is the visualization of weekly dominant source of COVID-19 transmission that aggregated from subnational level of 32 countries in Europe. In this tab, you can only visualize one certain country interactively. I also provided a bubble map to choose a country based on its rate of cases per 10,000 people. If you wish to explore the raw data, apart from the app, you can use this code below, since this package contains that data.

tibble(c19euxplorer::transmission_subnational_level)
#> # A tibble: 11,583 x 4
#>    Country Region     `Level of transmission` Week    
#>    <chr>   <chr>      <chr>                   <chr>   
#>  1 Austria Burgenland Not reported            2020-W01
#>  2 Austria Burgenland Not reported            2020-W02
#>  3 Austria Burgenland Not reported            2020-W03
#>  4 Austria Burgenland Not reported            2020-W04
#>  5 Austria Burgenland Not reported            2020-W05
#>  6 Austria Burgenland Not reported            2020-W06
#>  7 Austria Burgenland Not reported            2020-W07
#>  8 Austria Burgenland Not reported            2020-W08
#>  9 Austria Burgenland No cases                2020-W09
#> 10 Austria Burgenland Sporadic                2020-W10
#> # … with 11,573 more rows

Community Mobility. The objective of this tab is to explore the mobility of people during the pandemic in six types of locations daily. You are able to choose a country to be displayed. You can also choose the time range. I also added an interactive table of country response measure, which shows the start date and the end date of a measure. Since community mobility is developed to observe the effect of measure to the community activity, this table is useful as a benchmark of choosing the date to track that effect.

Data. This tab displays the raw data that are used to visualize the variables in the previous tabs. The users are allowed to choose one or more countries, even select all of the countries available. They are also allowed to choose the time range.

More. This tab contains two sub-tabs: About and References. The About sub-tab specifies the purpose of the app and other relevant information, such as the data source used in the app and the R packages to make the app. There is also a brief information of my self. The References sub-tab conveys the reference of data sources, readings, packages, and images used in the app.

Additional Usage

Country Centroids Data

Besides those two data sets, I also embedded a country centroids data set. Apart from COVID-19 matter, this data set is useful if you wish to make a bubble map with a point represents a whole country, such as the following map:

tibble(c19euxplorer::country_centroids)
#> # A tibble: 241 x 3
#>    name_long            Longitude Latitude
#>    <chr>                    <dbl>    <dbl>
#>  1 Aruba                   -70.0      12.5
#>  2 Afghanistan              66.0      33.8
#>  3 Angola                   17.5     -12.3
#>  4 Anguilla                -63.1      18.2
#>  5 Albania                  20.0      41.1
#>  6 Aland Islands            20.0      60.2
#>  7 Andorra                   1.56     42.5
#>  8 United Arab Emirates     54.3      23.9
#>  9 Argentina               -65.2     -35.4
#> 10 Armenia                  44.9      40.3
#> # … with 231 more rows
…
daily_cases_rate

daily_deaths_rate

country

date

plot_daily <- plot %>%
  rename(daily_cases = new_cases,
         date = year_week) 

plot_daily_new <- daily_indicator(plot_daily, "Cases")
tibble(plot_daily_new)
#> # A tibble: 954 x 3
#>    country date     count
#>    <chr>   <chr>    <dbl>
#>  1 Austria 2020-W15  2041
#>  2 Austria 2020-W16   855
#>  3 Austria 2020-W17   472
#>  4 Austria 2020-W18   336
#>  5 Austria 2020-W19   307
#>  6 Austria 2020-W20   363
#>  7 Austria 2020-W21   267
#>  8 Austria 2020-W22   231
#>  9 Austria 2020-W23   184
#> 10 Austria 2020-W24   192
#> # … with 944 more rows
…
